
run(s), MSE, PSNR (dB), CR%, file size (bytes)
1, 61.76457722981771, 30.22340887789059, 0.19527817564414118, 12134
2, 61.901753743489586, 30.21377407642121, 0.1961794100133576, 12190
3, 59.85985310872396, 30.359447140862382, 0.19497239969744276, 12115
4, 62.80488077799479, 30.150869653379736, 0.1964047186056617, 12204
5, 61.008209228515625, 30.276920835166983, 0.1952620821732623, 12133
6, 60.92988077799479, 30.282500325302397, 0.19582535365402257, 12168
7, 60.882080078125, 30.285908788823424, 0.19543911035292982, 12144
8, 61.318572998046875, 30.254883214416903, 0.19619550348423645, 12191
9, 61.30840047200521, 30.255603752780043, 0.19609894265896327, 12185
10, 61.166168212890625, 30.26569086126546, 0.19534254952765662, 12138
11, 60.62897745768229, 30.30400117195552, 0.19543911035292982, 12144
12, 60.93620808919271, 30.282049352211104, 0.1953586429985355, 12139
13, 61.66431681315104, 30.230464366093095, 0.19543911035292982, 12144
14, 61.56744384765625, 30.23729237906646, 0.1960345687754478, 12181
15, 61.324117024739586, 30.254490571332937, 0.19605066224632667, 12182
16, 62.092549641927086, 30.200408676721832, 0.19608284918808438, 12184
17, 61.412373860677086, 30.24824475753009, 0.1962115969551153, 12192
18, 60.11554972330729, 30.340935380240243, 0.19534254952765662, 12138
19, 60.955464680989586, 30.2806771449984, 0.19577707324138596, 12165
20, 62.289632161458336, 30.186645946224505, 0.19564832547435507, 12157
21, 61.86164347330729, 30.216589071809096, 0.1957126993578705, 12161
22, 60.49628702799479, 30.313516403102643, 0.19514942787711026, 12126
23, 61.376688639322914, 30.250769069523425, 0.19592191447929574, 12174
24, 60.776082356770836, 30.293476589652503, 0.19487583887216955, 12109
25, 61.174041748046875, 30.26513185734071, 0.19561613853259732, 12155
26, 60.73833211263021, 30.29617498939706, 0.19547129729468754, 12146
27, 61.91557820638021, 30.212804278755723, 0.1959862883628112, 12178
28, 61.5633544921875, 30.23758085027581, 0.19540692341117208, 12142
29, 61.60106404622396, 30.234921469922433, 0.1957287928287494, 12162
30, 61.21037801106771, 30.262552993296133, 0.19588972753753803, 12172